Tidy Data & Visualisation in R - Data tidying
…
Here is how the crabs01 should look like:

crabs01

# A tibble: 7,326 × 15
   carapace_…¹ left_…² front…³ species longi…⁴ is_gr…⁵ right…⁶ stage sex      id
         <dbl>   <dbl>   <dbl> <chr>     <dbl> <lgl>     <dbl> <chr> <chr> <dbl>
 1          21      16      15 A. far…   -8.02 FALSE        10 juve… ?         1
 2          21      13      16 A. far…   NA    FALSE        15 juve… ?         2
 3          15       9      10 A. far…   NA    TRUE          5 juve… fema…     3
 4          21      16      19 A. far…   NA    FALSE        14 juve… male…     4
 5          19       8      14 A. far…   NA    FALSE         7 juve… fema…     5
 6          17       7      15 A. far…   NA    FALSE         6 juve… fema…     6
 7          19      14      15 A. far…   NA    FALSE         9 juve… fema…     7
 8          14      13       8 A. far…   NA    FALSE         5 juve… fema…     8
 9          19      10      11 A. far…   NA    TRUE         10 juve… fema…     9
10          19      12      19 A. far…   NA    FALSE        12 juve… fema…    10
# … with 7,316 more rows, 5 more variables: carapace_width <dbl>,
#   latitude <dbl>, region <chr>, season <chr>, quadrat <chr>, and abbreviated
#   variable names ¹​carapace_length, ²​left_claw_length, ³​front_width,
#   ⁴​longitude, ⁵​is_gravid, ⁶​right_claw_length
# ℹ Use `print(n = ...)` to see more rows, and `colnames()` to see all variable names
…
Here’s how it should like:

quadrats04

# A tibble: 4 × 5
  region       quadrat  area latitude longitude
  <fct>          <int> <dbl>    <dbl>     <dbl>
1 Ria Formosa        1   250     37.0     -8.02
2 Ria Formosa        2   360     37.0     -7.99
3 Ria de Alvor       1   260     37.1     -8.60
4 Ria de Alvor       2   220     37.1     -8.62

crabs08

# A tibble: 7,326 × 12
   region     season quadrat species sex   stage is_gr…¹ carap…² carap…³ front…⁴
   <fct>      <fct>    <int> <fct>   <fct> <ord> <lgl>     <dbl>   <dbl>   <dbl>
 1 Ria Formo… summer       1 Afruca… <NA>  juve… FALSE        27      21      15
 2 Ria Formo… summer       1 Afruca… <NA>  juve… FALSE        27      21      16
 3 Ria Formo… summer       1 Afruca… fema… juve… TRUE         19      15      10
 4 Ria Formo… summer       1 Afruca… <NA>  juve… FALSE        26      21      19
 5 Ria Formo… summer       1 Afruca… fema… juve… FALSE        24      19      14
 6 Ria Formo… summer       1 Afruca… fema… juve… FALSE        22      17      15
 7 Ria Formo… summer       1 Afruca… fema… juve… FALSE        25      19      15
 8 Ria Formo… summer       1 Afruca… fema… juve… FALSE        18      14       8
 9 Ria Formo… summer       1 Afruca… fema… juve… TRUE         24      19      11
10 Ria Formo… summer       1 Afruca… fema… juve… FALSE        24      19      19
# … with 7,316 more rows, 2 more variables: left_claw_length <dbl>,
#   right_claw_length <dbl>, and abbreviated variable names ¹​is_gravid,
#   ²​carapace_width, ³​carapace_length, ⁴​front_width
# ℹ Use `print(n = ...)` to see more rows, and `colnames()` to see all variable names
…
